Warning: bad syntax, perhaps a bogus '-'? See /usr/share/doc/procps-3.2.8/FAQ
USER       PID %CPU %MEM    VSZ   RSS TTY      STAT START   TIME COMMAND
root         1  0.1  0.2  19692  2676 ?        Ss   06:05   0:01 /sbin/init
root         2  0.0  0.0      0     0 ?        S    06:05   0:00 [kthreadd]
root         3  0.0  0.0      0     0 ?        I    06:05   0:00 [kworker/0:0]
root         4  0.0  0.0      0     0 ?        I<   06:05   0:00 [kworker/0:0H]
root         5  0.0  0.0      0     0 ?        I    06:05   0:00 [kworker/u30:0]
root         6  0.0  0.0      0     0 ?        I<   06:05   0:00 [mm_percpu_wq]
root         7  0.0  0.0      0     0 ?        S    06:05   0:00 [ksoftirqd/0]
root         8  0.0  0.0      0     0 ?        I    06:05   0:00 [rcu_sched]
root         9  0.0  0.0      0     0 ?        I    06:05   0:00 [rcu_bh]
root        10  0.0  0.0      0     0 ?        S    06:05   0:00 [migration/0]
root        11  0.0  0.0      0     0 ?        S    06:05   0:00 [watchdog/0]
root        12  0.0  0.0      0     0 ?        S    06:05   0:00 [cpuhp/0]
root        13  0.0  0.0      0     0 ?        S    06:05   0:00 [kdevtmpfs]
root        14  0.0  0.0      0     0 ?        I<   06:05   0:00 [netns]
root        15  0.0  0.0      0     0 ?        I    06:05   0:00 [kworker/u30:1]
root        20  0.0  0.0      0     0 ?        S    06:05   0:00 [xenbus]
root        21  0.0  0.0      0     0 ?        S    06:05   0:00 [xenwatch]
root        22  0.0  0.0      0     0 ?        I    06:05   0:00 [kworker/0:1]
root       159  0.0  0.0      0     0 ?        S    06:05   0:00 [khungtaskd]
root       160  0.0  0.0      0     0 ?        S    06:05   0:00 [oom_reaper]
root       161  0.0  0.0      0     0 ?        I<   06:05   0:00 [writeback]
root       163  0.0  0.0      0     0 ?        S    06:05   0:00 [kcompactd0]
root       164  0.0  0.0      0     0 ?        SN   06:05   0:00 [ksmd]
root       165  0.0  0.0      0     0 ?        SN   06:05   0:00 [khugepaged]
root       166  0.0  0.0      0     0 ?        I<   06:05   0:00 [crypto]
root       167  0.0  0.0      0     0 ?        I<   06:05   0:00 [kintegrityd]
root       169  0.0  0.0      0     0 ?        I<   06:05   0:00 [kblockd]
root       519  0.0  0.0      0     0 ?        I<   06:05   0:00 [md]
root       522  0.0  0.0      0     0 ?        I<   06:05   0:00 [edac-poller]
root       650  0.0  0.0      0     0 ?        S    06:05   0:00 [kauditd]
root       656  0.0  0.0      0     0 ?        S    06:05   0:00 [kswapd0]
root       752  0.0  0.0      0     0 ?        I<   06:05   0:00 [kthrotld]
root       792  0.0  0.0      0     0 ?        I<   06:05   0:00 [kstrp]
root      1412  0.0  0.0      0     0 ?        I<   06:05   0:00 [ata_sff]
root      1441  0.0  0.0      0     0 ?        S    06:05   0:00 [scsi_eh_0]
root      1453  0.0  0.0      0     0 ?        I<   06:05   0:00 [scsi_tmf_0]
root      1456  0.0  0.0      0     0 ?        S    06:05   0:00 [scsi_eh_1]
root      1457  0.0  0.0      0     0 ?        I<   06:05   0:00 [scsi_tmf_1]
root      1517  0.0  0.0      0     0 ?        S    06:05   0:00 [jbd2/xvda1-8]
root      1518  0.0  0.0      0     0 ?        I<   06:05   0:00 [ext4-rsv-conver]
root      1563  0.0  0.2  11512  2620 ?        Ss   06:05   0:00 /sbin/udevd -d
root      1820  0.0  0.0      0     0 ?        I<   06:05   0:00 [kworker/0:1H]
root      1880  0.0  0.0 109140   660 ?        Ss   06:05   0:00 lvmetad
root      1889  0.0  0.0  27196   200 ?        Ss   06:05   0:00 lvmpolld
root      1941  0.0  0.0      0     0 ?        I<   06:05   0:00 [ipv6_addrconf]
root      2096  0.0  0.1   9412  1316 ?        Ss   06:05   0:00 /sbin/dhclient -q -lf /var/lib/dhclient/dhclient-eth0.leases -pf /var/run/dhclient-eth0.pid eth0
root      2214  0.0  0.2   9412  2056 ?        Ss   06:05   0:00 /sbin/dhclient -6 -nw -lf /var/lib/dhclient/dhclient6-eth0.leases -pf /var/run/dhclient6-eth0.pid -
root      2256  0.0  1.5 230484 15516 ?        Ssl  06:05   0:00 /usr/bin/amazon-ssm-agent
root      2264  0.0  0.2  53004  2308 ?        S<sl 06:05   0:00 auditd
root      2288  0.0  0.2 247432  2872 ?        Sl   06:05   0:00 /sbin/rsyslogd -i /var/run/syslogd.pid -c 5
root      2311  0.0  0.0   6520    96 ?        Ss   06:05   0:00 rngd --no-tpm=1 --quiet
rpc       2334  0.0  0.2  35364  2300 ?        Ss   06:05   0:00 rpcbind
rpcuser   2355  0.0  0.3  39932  3376 ?        Ss   06:05   0:00 rpc.statd
dbus      2386  0.0  0.0  21844   228 ?        Ss   06:05   0:00 dbus-daemon --system
root      2421  0.0  0.1   4396  1452 ?        Ss   06:05   0:00 /usr/sbin/acpid
root      2517  0.0  0.3  80584  3080 ?        Ss   06:05   0:00 /usr/sbin/sshd
ntp       2528  0.0  0.5 116516  5324 ?        Ssl  06:05   0:00 ntpd -u ntp:ntp -p /var/run/ntpd.pid -g
root      2549  0.0  0.4  89636  4048 ?        Ss   06:05   0:00 sendmail: accepting connections
smmsp     2558  0.0  0.3  81084  3884 ?        Ss   06:05   0:00 sendmail: Queue runner@01:00:00 for /var/spool/clientmqueue
root      2570  0.0  0.2 121652  2516 ?        Ss   06:05   0:00 crond
root      2584  0.0  0.0  19188   168 ?        Ss   06:05   0:00 /usr/sbin/atd
root      2615  0.0  7.0 427204 71560 ?        Sl   06:05   0:00 /usr/bin/dockerd --default-ulimit nofile=1024:4096
root      2621  0.1  1.6 211640 16192 ?        Ssl  06:05   0:01 docker-containerd --config /var/run/docker/containerd/containerd.toml
root      2801  0.0  0.1   6508  1692 ttyS0    Ss+  06:05   0:00 /sbin/agetty ttyS0 9600 vt100-nav
root      2804  0.0  0.1   4360  1488 tty1     Ss+  06:05   0:00 /sbin/mingetty /dev/tty1
root      2807  0.0  0.1   4360  1436 tty2     Ss+  06:05   0:00 /sbin/mingetty /dev/tty2
root      2810  0.0  0.1   4360  1504 tty3     Ss+  06:05   0:00 /sbin/mingetty /dev/tty3
root      2812  0.0  0.1   4360  1496 tty4     Ss+  06:05   0:00 /sbin/mingetty /dev/tty4
root      2814  0.0  0.1   4360  1488 tty5     Ss+  06:05   0:00 /sbin/mingetty /dev/tty5
root      2816  0.0  0.1   4360  1436 tty6     Ss+  06:05   0:00 /sbin/mingetty /dev/tty6
root      2817  0.0  0.2  11508  2208 ?        S    06:05   0:00 /sbin/udevd -d
root      2818  0.0  0.2  11508  2208 ?        S    06:05   0:00 /sbin/udevd -d
root      3370  0.0  0.7 120036  7136 ?        Ss   06:12   0:00 sshd: ec2-user [priv]
ec2-user  3372  0.0  0.4 120184  4372 ?        S    06:12   0:00 sshd: ec2-user@notty
ec2-user  3373  0.2  5.4 1228112 54840 ?       Ssl  06:12   0:00 vfs-worker {"pingInterval":5000,"nodePath":"/home/ec2-user/.c9/node_modules","tmuxBin":"/home/ec2-u
root      3804  0.0  0.7 120036  7216 ?        Ss   06:12   0:00 sshd: ec2-user [priv]
ec2-user  3808  0.0  0.4 120036  4076 ?        S    06:12   0:00 sshd: ec2-user@notty
ec2-user  3810  0.0  2.8 649240 28728 ?        Ssl  06:12   0:00 vfs-worker {"pingInterval":5000,"nodePath":"/home/ec2-user/.c9/node_modules","tmuxBin":"/home/ec2-u
ec2-user  4360  0.0  0.2 112804  2748 pts/0    Ss+  06:12   0:00 /home/ec2-user/.c9/bin/tmux -u2 -L cloud92.2 new -s cloud9_terminal_739 export ISOUTPUTPANE=0;bash 
ec2-user  4365  0.0  0.3 115868  3596 ?        Ss   06:12   0:00 /home/ec2-user/.c9/bin/tmux -u2 -L cloud92.2 new -s cloud9_terminal_739 export ISOUTPUTPANE=0;bash 
ec2-user  4369  0.0  0.2 113140  2720 pts/1    Ss   06:12   0:00 bash -c export ISOUTPUTPANE=0;bash -l
ec2-user  4371  0.0  0.7 119376  7460 pts/1    S    06:12   0:00 bash -l
ec2-user  5263  0.0  0.2 117264  2584 pts/1    R+   06:17   0:00 ps -aux