2019-01-26 00:00:00,387100.0,387300.0,386898.0,387062.0,948.9187260999872
2019-01-26 00:01:00,387062.0,387250.0,386235.0,386408.0,1220.78097928998
2019-01-26 00:02:00,386408.0,386408.0,386000.0,386224.0,757.2276836499873
2019-01-26 00:03:00,386224.0,386371.0,386136.0,386136.0,392.69831684999184
2019-01-26 00:04:00,386182.0,386382.0,386025.0,386374.0,304.45079015999573
2019-01-26 00:05:00,386381.0,386494.0,386331.0,386450.0,351.731027919995
2019-01-26 00:06:00,386450.0,386633.0,386417.0,386587.0,431.5828135999935
2019-01-26 00:07:00,386597.0,387294.0,386576.0,386616.0,834.5590492099836
2019-01-26 00:08:00,386620.0,387000.0,386534.0,386779.0,439.2760312199928
2019-01-26 00:09:00,386779.0,386950.0,386654.0,386935.0,303.44812140999466
2019-01-26 00:10:00,386935.0,387350.0,386777.0,387339.0,577.5536804299952
2019-01-26 00:11:00,387291.0,387400.0,387056.0,387221.0,709.148059029991
2019-01-26 00:12:00,387221.0,387399.0,386401.0,386607.0,738.5443538899898
2019-01-26 00:13:00,386607.0,386945.0,386595.0,386905.0,316.766596519992
2019-01-26 00:14:00,386894.0,386997.0,386650.0,386650.0,267.56040909999575
2019-01-26 00:15:00,386650.0,386861.0,386617.0,386747.0,261.4117672499942
2019-01-26 00:16:00,386747.0,386807.0,386600.0,386715.0,186.68014099999712
2019-01-26 00:17:00,386717.0,386796.0,386633.0,386666.0,138.40197369000094
2019-01-26 00:18:00,386666.0,386700.0,386300.0,386332.0,400.1022992099945
2019-01-26 00:19:00,386328.0,386521.0,386250.0,386250.0,396.75269281999107
2019-01-26 00:20:00,386255.0,386600.0,386250.0,386444.0,334.11979023999174
2019-01-26 00:21:00,386451.0,386663.0,386432.0,386572.0,206.9995152099974
2019-01-26 00:22:00,386572.0,386773.0,386557.0,386637.0,170.63668436999777
2019-01-26 00:23:00,386645.0,386659.0,386525.0,386546.0,107.38023522000114
2019-01-26 00:24:00,386549.0,386735.0,386425.0,386677.0,220.02776534999617
2019-01-26 00:25:00,386674.0,386949.0,386654.0,386865.0,332.1311570199965
2019-01-26 00:26:00,386865.0,386950.0,386476.0,386615.0,352.68937237999324
2019-01-26 00:27:00,386604.0,386746.0,386463.0,386695.0,185.58335829999783
2019-01-26 00:28:00,386700.0,386975.0,386631.0,386975.0,233.8836134099995
2019-01-26 00:29:00,386975.0,387900.0,386806.0,387250.0,1301.5952811599802
2019-01-26 00:30:00,387252.0,387255.0,386730.0,387028.0,679.3903307599895
2019-01-26 00:31:00,387028.0,387266.0,387000.0,387233.0,253.96168094999658
2019-01-26 00:32:00,387233.0,387284.0,387076.0,387122.0,210.80677088999755
2019-01-26 00:33:00,387105.0,387133.0,387028.0,387090.0,122.44719405000198
2019-01-26 00:34:00,387090.0,387104.0,386900.0,386996.0,143.87805162999936
2019-01-26 00:35:00,386992.0,387105.0,386701.0,386788.0,471.9869208399926
2019-01-26 00:36:00,386789.0,386902.0,386650.0,386840.0,326.4749351399927
2019-01-26 00:37:00,386840.0,386952.0,386801.0,386896.0,138.45704632000124
2019-01-26 00:38:00,386896.0,386911.0,386800.0,386800.0,81.30094063000043
2019-01-26 00:39:00,386800.0,387057.0,386783.0,387001.0,178.76870028999934
2019-01-26 00:40:00,387001.0,387116.0,386947.0,386977.0,168.20965150999842
2019-01-26 00:41:00,386989.0,386991.0,386705.0,386858.0,145.58514166999973
2019-01-26 00:42:00,386855.0,386919.0,386770.0,386851.0,103.19605886000187
2019-01-26 00:43:00,386842.0,386866.0,386793.0,386842.0,67.37572835000032
2019-01-26 00:44:00,386842.0,386922.0,386787.0,386912.0,86.92296047000194
2019-01-26 00:45:00,386912.0,386958.0,386801.0,386852.0,137.11049479000224
2019-01-26 00:46:00,386852.0,386924.0,386812.0,386848.0,87.03409408000086
2019-01-26 00:47:00,386848.0,387097.0,386839.0,387027.0,153.01334731999967
2019-01-26 00:48:00,387030.0,387229.0,387017.0,387136.0,293.1422270599918
2019-01-26 00:49:00,387167.0,387200.0,386970.0,387048.0,134.25781202000155
2019-01-26 00:50:00,387027.0,387200.0,387025.0,387127.0,138.9248362700012
2019-01-26 00:51:00,387134.0,387150.0,387037.0,387084.0,90.02906180000097
2019-01-26 00:52:00,387079.0,387099.0,386923.0,386965.0,74.05426737999984
2019-01-26 00:53:00,386962.0,387033.0,386812.0,386857.0,119.00556439000107
2019-01-26 00:54:00,386863.0,387054.0,386839.0,386990.0,124.0764813200021
2019-01-26 00:55:00,386995.0,387560.0,386949.0,387307.0,543.9733004699939
2019-01-26 00:56:00,387308.0,387700.0,387284.0,387695.0,535.9069414899941
2019-01-26 00:57:00,387681.0,387695.0,387421.0,387520.0,251.41987642999678
2019-01-26 00:58:00,387523.0,387692.0,387462.0,387505.0,200.48649837999687
2019-01-26 00:59:00,387533.0,387543.0,387043.0,387250.0,504.13615599999105
2019-01-26 01:00:00,387226.0,387600.0,387196.0,387499.0,441.4690444499929
2019-01-26 01:01:00,387499.0,388200.0,387499.0,387868.0,1136.735289969977
2019-01-26 01:02:00,387868.0,388750.0,387113.0,387303.0,1769.4461910199695
2019-01-26 01:03:00,387300.0,387616.0,386885.0,386885.0,880.7083253699857
2019-01-26 01:04:00,386900.0,386982.0,386300.0,386356.0,1265.2458643499758
2019-01-26 01:05:00,386362.0,386700.0,385700.0,386291.0,1528.1326686199675
2019-01-26 20:29:00,389817,389840,389786,389800,39.505565840000074
2019-01-26 20:30:00,389799,389852,389784,389825,50.946638019999845
2019-01-26 20:31:00,389825,389912,389811,389900,133.07404581999992
2019-01-26 20:43:00,389480,389516,389401,389450,139.44465322999991
2019-01-26 20:44:00,389454,389524,389433,389518,54.62229391000023
2019-01-26 20:45:00,389514,389700,389490,389614,162.46946062000043
2019-01-26 20:47:00,389501,389530,389486,389491,39.60375067999995
2019-01-26 20:48:00,389500,389501,389380,389402,131.326915990001
2019-01-26 20:49:00,389382,389421,389312,389404,146.65409371000032
2019-01-26 20:50:00,389404,389418,389202,389353,254.4863789799973
2019-01-26 20:51:00,389341,389399,389301,389341,107.01980301000127
2019-01-26 20:52:00,389343,389397,389260,389289,120.63681639000102
2019-01-26 20:53:00,389289,389435,389260,389295,155.2972167299991
2019-01-26 20:54:00,389295,389481,389287,389389,257.26428514999674
2019-01-26 20:55:00,389389,389489,389320,389462,206.646024709998
2019-01-26 20:56:00,389459,389498,389200,389268,343.3483162499954
2019-01-26 20:57:00,389262,389450,389257,389392,146.9847419700003
2019-01-26 20:58:00,389392,389499,389381,389420,125.24174314000187
2019-01-26 20:59:00,389420,389432,389257,389326,179.39299292999826
2019-01-26 21:00:00,389326,389377,389208,389237,178.77174629999942
2019-01-26 21:01:00,389237,389328,388500,388850,901.6359562599936
2019-01-26 21:02:00,388850,388894,388200,388540,1120.9784685099803
2019-01-26 21:03:00,388553,389122,388532,388979,856.1801386699814
2019-01-26 21:04:00,389030,389110,388606,388746,389.81217669999415
2019-01-26 21:05:00,388753,388808,388568,388656,272.14568296999863
2019-01-26 21:06:00,388656,388800,388600,388760,193.8629929599993
2019-01-26 21:07:00,388774,389000,388740,388909,286.02241083999746
2019-01-26 21:08:00,388924,388934,388793,388793,145.2140357100002
2019-01-26 21:09:00,388793,388957,388720,388830,187.20151362999866
2019-01-26 21:10:00,388822,388888,388704,388753,177.15047678999912
2019-01-26 21:11:00,388763,388828,388648,388708,126.50896265000247
2019-01-26 21:12:00,388663,388754,388600,388614,239.93165143999812
2019-01-26 21:13:00,388614,388666,388530,388562,179.24995571999978
2019-01-26 21:14:00,388563,388618,388380,388551,344.69290411999674
2019-01-26 21:15:00,388540,388563,388200,388373,464.7967714399976
2019-01-26 21:16:00,388377,388393,388100,388186,331.79106679999614
2019-01-26 21:17:00,388201,388287,387806,387979,668.5865677099945
2019-01-26 21:18:00,387895,388135,387800,387887,438.1509637699942
2019-01-26 21:19:00,387887,387942,387500,387600,651.5513713799908
2019-01-26 21:20:00,387600,387990,386500,387499,1371.491706429973
2019-01-26 21:21:00,387476,388000,387469,387861,686.4630398099853
2019-01-26 21:22:00,387861,388589,387857,388222,857.4771346599906
2019-01-26 21:23:00,388222,388222,387894,388053,597.844787209993
2019-01-26 21:24:00,388037,388066,387724,387938,372.8961750499925
2019-01-26 21:25:00,387950,388380,387904,388202,494.88594615999517
2019-01-26 21:26:00,388207,388398,388000,388211,421.7794766999908
2019-01-26 21:27:00,388219,388299,388029,388234,260.6775773299957
2019-01-26 21:28:00,388237,388400,388157,388384,215.78485172999817
2019-01-26 21:29:00,388398,388510,388331,388482,328.70890298999853
2019-01-26 21:30:00,388497,388530,388390,388431,253.59314368999915
2019-01-26 21:31:00,388431,388529,388402,388446,144.94267753000184
2019-01-26 21:32:00,388442,388704,388435,388631,407.52590597999415
2019-01-26 21:33:00,388633,388682,388409,388409,332.5904231699928
2019-01-26 21:34:00,388407,388578,388405,388575,186.27634927999992
2019-01-26 21:35:00,388575,388704,388453,388593,291.8848837399953
2019-01-26 21:36:00,388577,388610,388279,388403,355.45862744999715
2019-01-26 21:37:00,388403,388421,388220,388315,218.03979074999705
2019-01-26 21:38:00,388311,388443,388300,388414,147.27469798000033
2019-01-26 21:39:00,388411,388441,388352,388393,182.9122906299991
2019-01-26 21:40:00,388393,388467,388326,388348,103.76965527000142
2019-01-26 21:41:00,388354,388382,388200,388260,160.12944231000034
2019-01-26 21:42:00,388260,388345,388203,388338,149.69833764999953
2019-01-26 21:43:00,388338,388352,388209,388274,153.9474321499998
2019-01-26 21:44:00,388275,388305,388221,388231,62.86024069999998
2019-01-26 21:45:00,388233,388260,388071,388132,221.1426517499975
2019-01-26 21:46:00,388132,388220,388107,388188,77.91163267999993
2019-01-26 21:47:00,388188,388280,388181,388240,175.21292559000025
2019-01-26 21:48:00,388240,388350,388222,388300,164.77656207999917
2019-01-26 21:49:00,388320,388500,388318,388481,194.18621586000077
2019-01-26 21:50:00,388480,388580,388339,388571,263.53732357999843
2019-01-26 21:51:00,388561,388576,388318,388374,144.4165461200014
2019-01-26 21:52:00,388375,388480,388316,388476,133.24319862000107
2019-01-26 21:53:00,388476,388490,388377,388431,103.98207477000123
2019-01-26 21:54:00,388430,388431,388183,388314,282.44216768999684
2019-01-26 21:55:00,388309,388350,388154,388222,222.0071416499979
2019-01-26 21:56:00,388221,388332,388200,388305,101.64255992000072
2019-01-26 21:57:00,388306,388480,388300,388421,151.3548217999997
2019-01-26 21:58:00,388415,388468,388360,388446,153.56580974999923
2019-01-26 21:59:00,388446,388588,388393,388517,214.25510661999868
2019-01-26 22:00:00,388509,388517,388415,388457,108.78662421000031
2019-01-26 22:01:00,388457,388600,388404,388570,259.6574773599991
2019-01-26 22:02:00,388570,388592,388313,388406,245.0695133999973
2019-01-26 22:03:00,388406,388521,388363,388424,142.9660674300012
2019-01-26 22:04:00,388420,388533,388300,388415,192.64479307000022
2019-01-26 22:05:00,388418,388548,388400,388449,119.88081858
2019-01-26 22:06:00,388454,388499,388434,388467,56.73986924000006
2019-01-26 22:07:00,388469,388549,388452,388549,100.8681037900004
2019-01-26 22:08:00,388533,388568,388490,388504,69.09555301999977
2019-01-26 22:09:00,388504,388600,388501,388574,94.53126914000043
2019-01-26 22:10:00,388569,388570,388476,388479,87.78609125000037
2019-01-26 22:11:00,388485,388523,388476,388504,39.04483221
2019-01-26 22:12:00,388500,388515,388490,388501,44.84570641999998
2019-01-26 22:13:00,388503,388600,388499,388525,177.42411373999943
2019-01-26 22:14:00,388525,388651,388523,388627,290.26221449999554
2019-01-26 22:15:00,388627,388660,388550,388582,168.54744553999927
2019-01-26 22:16:00,388584,388649,388572,388605,106.75258925000041
2019-01-26 22:17:00,388604,388637,388545,388626,104.83469800000046
2019-01-26 22:18:00,388621,388647,388595,388647,60.18707757999983
2019-01-26 22:19:00,388647,388650,388593,388601,64.40340741999975
2019-01-26 22:20:00,388610,388610,388502,388523,134.3136125699997
2019-01-26 22:21:00,388520,388549,388502,388502,69.25096119000017
2019-01-26 22:22:00,388531,388549,388485,388540,95.89368865999992
2019-01-26 22:23:00,388540,388700,388525,388699,275.96498401999906
2019-01-26 22:24:00,388657,388802,388649,388742,324.6015026399946
2019-01-26 22:25:00,388743,388940,388742,388885,271.9301138499949
2019-01-26 22:26:00,388885,388986,388843,388870,201.0909409699995
2019-01-26 22:27:00,388905,388910,388800,388803,152.23235481999944
2019-01-26 22:28:00,388803,388870,388627,388645,198.6450937599989
2019-01-26 22:29:00,388645,388788,388550,388615,249.0102112199988
2019-01-26 22:30:00,388615,388677,388595,388606,106.0702652300007
2019-01-26 22:31:00,388620,388620,388450,388450,300.3135889299973
2019-01-26 22:32:00,388450,388730,388350,388523,421.1669149699919
2019-01-26 22:33:00,388523,388645,388473,388550,211.64053387999718
2019-01-26 22:34:00,388570,388599,388501,388599,94.2855103500013
2019-01-26 22:35:00,388598,388636,388540,388597,61.55908118999982
2019-01-26 22:36:00,388597,388613,388515,388549,80.74363728999975
2019-01-26 22:37:00,388556,388687,388552,388628,129.24858479000153
2019-01-26 22:38:00,388649,388735,388628,388676,77.98941297000025
2019-01-26 22:39:00,388676,388693,388607,388630,67.97207727999978
2019-01-26 22:40:00,388617,388735,388612,388704,70.86719418000015
2019-01-26 22:41:00,388704,388800,388620,388746,135.99850877000065
2019-01-26 22:42:00,388746,388754,388680,388742,48.62982082999997
2019-01-26 22:43:00,388742,388755,388672,388683,49.80303984999962
2019-01-26 22:44:00,388683,388705,388620,388651,59.353649389999575
2019-01-26 22:45:00,388651,388706,388572,388679,121.53175415000022
2019-01-26 22:46:00,388679,388681,388605,388615,72.56647183999982
2019-01-26 22:47:00,388613,388613,388516,388582,94.28995709000021
2019-01-26 22:48:00,388579,388683,388549,388606,99.53227090000084
2019-01-26 22:49:00,388606,388654,388580,388637,67.77295894999999
2019-01-26 22:50:00,388631,388647,388313,388400,416.79282865999625
2019-01-26 22:51:00,388400,388431,388185,388250,306.88696727999525
2019-01-26 22:52:00,388247,388345,388228,388303,126.85223692000106
2019-01-26 22:53:00,388309,388320,388210,388238,128.29931619000078
2019-01-26 22:54:00,388238,388248,388100,388200,242.26468260999872
2019-01-26 22:55:00,388200,388222,388050,388140,288.1186672299992
2019-01-26 22:56:00,388140,388300,388101,388214,229.19365557999936
2019-01-26 22:57:00,388215,388249,388196,388220,135.0363297
2019-01-26 22:58:00,388213,388244,388101,388215,216.55069296999883
2019-01-26 22:59:00,388244,388260,388054,388165,364.73099376999863
2019-01-26 23:00:00,388175,388202,388074,388160,230.39201008999692
2019-01-26 23:01:00,388151,388221,388124,388194,136.15158159000077
2019-01-26 23:02:00,388194,388203,388030,388099,278.2859348099947
2019-01-26 23:03:00,388076,388270,388050,388270,331.480391389999
2019-01-26 23:04:00,388270,388345,388123,388329,382.49520214999245
2019-01-26 23:05:00,388345,388382,388269,388340,186.49788496999847
2019-01-26 23:06:00,388340,388478,388332,388388,203.98240364999867
2019-01-26 23:07:00,388388,388449,388348,388406,106.94449739000027
2019-01-26 23:08:00,388406,388500,388297,388454,269.40286418999847
2019-01-26 23:09:00,388454,388487,388371,388405,119.1290354300017
2019-01-26 23:10:00,388405,388436,388323,388431,133.5543327300008
2019-01-26 23:11:00,388422,388488,388417,388458,136.1999112400009
2019-01-26 23:12:00,388445,388545,388433,388513,102.08280073000012
2019-01-26 23:13:00,388520,388529,388431,388451,85.03611777000063
2019-01-26 23:14:00,388470,388535,388432,388450,139.68344536000032
2019-01-26 23:15:00,388451,388500,388445,388445,43.601929400000024
2019-01-26 23:16:00,388456,388464,388350,388360,192.1142193200008
2019-01-26 23:17:00,388360,388393,388302,388302,151.79252439999996
2019-01-26 23:18:00,388318,388445,388298,388445,101.46307431000092
2019-01-26 23:19:00,388445,388535,388400,388481,216.98529635999878
2019-01-26 23:20:00,388480,388497,388311,388353,223.95472323999772
2019-01-26 23:21:00,388357,388375,388330,388342,81.51550111999997
2019-01-26 23:22:00,388353,388430,388345,388409,53.07945407000023
2019-01-26 23:23:00,388410,388482,388343,388447,101.98322190000106
2019-01-26 23:24:00,388464,388498,388400,388491,114.72512240000128
2019-01-26 23:25:00,388491,388549,388471,388471,117.40633884000151
2019-01-26 23:26:00,388471,388500,388423,388424,81.9132746099998
2019-01-26 23:27:00,388424,388438,388225,388309,325.74469433999656
2019-01-26 23:28:00,388332,388351,388239,388331,116.40281447000142
2019-01-26 23:29:00,388324,388338,388250,388268,77.85367026000046
2019-01-26 23:30:00,388259,388330,388210,388270,155.96242289999952
2019-01-26 23:31:00,388274,388310,388245,388266,62.76506704999966
2019-01-26 23:32:00,388266,388306,388200,388226,87.88936204999999
2019-01-26 23:33:00,388223,388254,388150,388201,137.28526444000002
2019-01-26 23:34:00,388201,388277,388187,388247,82.6678121999993
2019-01-26 23:35:00,388247,388277,388191,388234,154.0967942700013
2019-01-26 23:36:00,388231,388295,388204,388226,64.34266313999962
2019-01-26 23:37:00,388229,388251,388211,388219,35.37094455000012
2019-01-26 23:38:00,388219,388219,388175,388179,125.09150651000037
2019-01-26 23:39:00,388181,388229,388130,388175,130.06414978000075
2019-01-26 23:40:00,388176,388202,388168,388195,64.30287842999982
2019-01-26 23:41:00,388200,388208,388040,388055,347.67604652999745
2019-01-26 23:42:00,388048,388156,388048,388131,123.19793599000201
2019-01-26 23:43:00,388156,388180,388091,388132,97.68729712000054
2019-01-26 23:44:00,388131,388235,388117,388140,251.05926825999796
2019-01-26 23:45:00,388142,388182,388051,388164,121.04151632000132
2019-01-26 23:46:00,388165,388250,388155,388187,113.41865021000035
2019-01-26 23:47:00,388190,388299,388183,388246,183.75787774000057
2019-01-26 23:48:00,388247,388280,388243,388275,38.093647070000145
2019-01-26 23:49:00,388269,388292,388199,388202,121.15578785000127
2019-01-26 23:50:00,388208,388297,388206,388282,73.79638855999995
2019-01-26 23:51:00,388278,388333,388270,388279,83.51303117999993
2019-01-26 23:52:00,388278,388300,388256,388278,62.988577559999946
2019-01-26 23:53:00,388282,388287,388193,388216,104.98888826000062
2019-01-26 23:54:00,388216,388253,388193,388252,92.85641557000002
2019-01-26 23:55:00,388252,388300,388228,388298,75.07309999000005
2019-01-26 23:56:00,388296,388484,388286,388422,175.0189142899998
2019-01-26 23:57:00,388422,388490,388388,388459,174.53896462999947
2019-01-26 23:58:00,388451,388545,388444,388481,183.88365145
2019-01-26 23:59:00,388481,388500,388408,388415,293.9665383699989
